702779 833821 504
916233 120580 525
719023 715482 380
60701 111 340
903958 565832 525
535433 25638 470
744086 821309 468
397217 361229 436
433383 713338 509
222100 981263 525
878924 173059 525
480023 328196 449
922891 795006 525
72316 789875 509
196909 256420 443
676459 40216 509
223129 445751 449
4719 696536 509
259665 832730 509
527931 552347 452
618816 990053 525
100291 628581 509
523746 870740 525
369296 894487 525
992513 211398 525
12166 124439 354
944861 804718 525
31996 95405 351
923961 77668 525
841112 417737 525
179123 596592 470
770184 36365 509
727211 259302 509
422317 554848 470
593648 380681 470
460768 519221 470
343345 907004 525
81552 219331 386
769340 721355 468
799825 905915 525
91285 653013 509
391667 772487 509
17170 37610 324
481924 249444 449
481070 366167 449
478719 241640 449
176260 545757 470
116813 141325 344
769657 363100 509
986800 323842 525
559586 957290 525
315760 857526 525
907895 376473 525
955261 919616 507
830074 493399 509
417380 6079 449
493250 672159 509
421672 729963 509
866488 335579 525
257158 366920 441
379597 292686 441
476004 374785 449
394890 237686 441
643989 921967 525
390955 920224 525
7982 435961 449
35187 828223 509
677258 339241 509
158246 131694 383
916307 867177 476
71590 18238 340
213998 390511 443
771725 268771 509
231368 656231 509
758789 781372 468
333719 254532 407
799631 425344 509
571487 351143 470
465985 252593 449
842019 974120 507
701757 334546 509
759568 403166 509
599314 408105 470
908888 171582 525
77494 287736 443
733935 76189 509
763037 772701 468
778833 415877 509
280050 273848 389
289347 635017 509
539830 397500 470
362476 573650 470
129514 108848 349
653581 542370 509
395551 85700 443
359648 511627 449
488636 254752 449
353903 251039 441
522174 879913 525
645326 950607 525
990094 60781 525
884412 829556 525
830292 768008 468
48949 958805 525
501495 962855 525
15858 113906 354
905313 40657 525
508404 743428 509
602715 688884 509
789256 660920 504
547573 131655 470
164729 922381 525
128222 687919 509
43398 149487 375
328510 971317 525
950867 460193 525
169370 522430 470
376830 382304 379
52891 823049 509
141712 438930 449
2419 143749 375
292759 46477 443
307902 173089 443
602453 530618 452
137820 915339 525
88151 183379 383
665358 757998 504
910993 384971 525
935899 794601 525
958902 563623 525
963889 277461 525
526982 516257 439
392390 613188 470
654991 816429 504
32001 793586 509
903392 577944 525
356628 305900 441
833920 790577 468
217094 211448 386
337164 427733 449
299709 43119 443
877130 446188 525
254349 434391 449
470147 728674 509
78166 319854 443
117191 743521 509
17430 329372 443
861008 798452 525
434122 585634 470
10588 816316 509
1 10 20
100 200 125
201 210 89
900 1000 174
1000 900 174
1 1 1
500000 999999 525
300 900 179
400000 413000 449
999988 999988 109
3 1 8
1 3 8
19 20 21
1 999999 525
837799 838510 525
836990 837799 525
837700 838202 525
