...................
----------------------------------------------------------------------
Ran 19 tests in 0.181s

OK
Name             Stmts   Miss Branch BrPart  Cover   Missing
------------------------------------------------------------
Collatz.py          33      1     14      1    96%   39, 38->39
TestCollatz.py      83      0      0      0   100%
------------------------------------------------------------
TOTAL              116      1     14      1    98%
